<svg xmlns="http://www.w3.org/2000/svg" width="400" height="250.379">
    <defs>
        <clipPath id="a">
            <path d="M0 200.303h320V0H0v200.303z"/>
        </clipPath>
    </defs>
    <g clip-path="url(#a)" transform="matrix(1.25 0 0 -1.25 0 250.379)">
        <path d="M262.684 162.723c.175 4.73 2.156 9.12 5.614 12.34 3.46 3.23 7.975 4.9 12.708 4.75 9.76-.35 17.43-8.59 17.095-18.34-.184-4.73-2.164-9.12-5.614-12.328-3.46-3.25-7.964-4.92-12.72-4.76-9.748.359-17.41 8.58-17.083 18.338zm47.347-17.44c.805.533 1.396.973 1.645 1.07l.269.42c-.681 4.28-7.06 25.03-11.885 30.019-1.33 1.36-2.394 2.7-4.55 3.96-17.454 10.17-58.862 16.31-60.802 16.59l-.33-.091-.124-.3s-.16-8.58-.184-9.54c-4.23 1.422-34.972 11.352-63.791 12.352-24.44.859-60.033 4.02-107.196-24.981l-1.395-.868c-22.19-13.841-37.51-30.91-45.517-50.74-2.512-6.24-5.89-20.32-2.542-33.568 1.442-5.791 4.13-11.61 7.756-16.82 8.194-11.77 21.944-19.58 36.748-20.898 20.905-1.87 36.733 7.519 42.363 25.1 3.87 12.129 0 29.927-14.84 39.007-12.07 7.39-25.048 5.71-32.577.73-6.532-4.331-10.231-11.06-10.166-18.451.15-13.11 11.444-20.078 19.565-20.1 2.359 0 4.728.41 7.399 1.28.95.29 1.845.65 2.83 1.26l.31.18.194.13-.065-.038c1.85 1.26 2.964 3.312 2.964 5.51 0 .6-.084 1.209-.256 1.82-.96 3.32-4.24 5.33-7.638 4.71l-.46-.108-.62-.19-.901-.31c-1.87-.46-3.27-.5-3.57-.51-.95.06-5.624 1.46-5.624 6.58v.07c0 1.88.754 3.199 1.17 3.92 1.454 2.28 5.435 4.518 10.814 4.05 7.059-.611 12.149-4.231 15.52-11.06 3.129-6.35 2.31-14.16-2.11-19.88-4.39-5.67-12.205-8.078-22.598-6.96-10.481 1.16-19.34 7.19-24.304 16.58-4.856 9.178-5.121 20.059-.685 28.418 10.609 20.029 30.648 19.82 41.636 17.92 16.26-2.82 34.758-17.82 41.319-35.138 1.06-2.761 1.6-4.95 2.072-6.951l.708-2.99 18.37-8.97.24-.18.446.04.08.53c-.113.41-.38.789-.804 5.93-.35 4.562-1.06 17.05 5.228 23.24 2.44 2.419 6.16 4.578 9.099 5.269 12.04 2.94 26.159.912 39.507-14.54 6.91-7.98 10.28-11.62 11.97-13.248l.59-.532.694-.52c.554-.3 22.955-10.62 22.955-10.62l.46.11.01.479c-.15.17-14.2 18.328-11.698 33.28 1.969 11.908 11.447 10.83 24.557 9.35 4.28-.5 9.152-1.06 14.196-1.172 14.083-.09 29.254 2.51 38.604 6.6 6.049 2.63 9.909 4.38 12.328 6.58.87.72 1.32 1.89 1.79 3.15l.33.83c.39 1.022.967 3.172 1.219 4.35.102.52.162 1.069-.21 1.36l-1.293-.24c-4.106-2.471-14.37-7.15-23.965-7.35-11.914-.241-35.898 11.98-38.398 13.28l-.241.279c-.59 1.44-4.19 9.949-4.96 11.749 17.27-11.38 31.594-17.67 42.559-18.64 12.207-1.086 21.722 5.575 25.786 8.423h-.001zm-27.153 15.8c-3.031 0-5.48 1.64-5.48 3.65 0 2.029 2.449 3.66 5.48 3.66 3.03 0 5.486-1.631 5.486-3.66-.002-2.01-2.457-3.65-5.486-3.65m-2.021 13.512c-3.311.119-6.45-1.051-8.85-3.301-2.4-2.25-3.814-5.298-3.914-8.6-.23-6.82 5.11-12.558 11.916-12.81 3.309-.1 6.464 1.07 8.878 3.32 2.409 2.262 3.795 5.312 3.9 8.6.23 6.819-5.11 12.549-11.93 12.79z" fill="#73ba25"/>
        <path d="M133.979 60.289c-7.784 0-12.065-6.58-12.065-11.13v-5.84c0-6.7 5.474-10.851 10.55-10.851h17.819c2.245 0 2.715-1.47 2.715-2.71v-3.77c0-.4-.081-4.02-2.715-4.02H125.98c-2.415 0-4.161-1.68-4.161-3.98v-1.04c0-2.291 1.746-3.961 4.16-3.961h25.624c6.698 0 11.02 4.66 11.02 11.879v6.302c0 6.779-4.87 9.809-9.706 9.809h-17.533c-2.64 0-3.836 1.98-3.836 3.38v3.48c0 2.19 1.465 3.46 4.025 3.46h19.408c2.38 0 4.17 1.71 4.17 3.97v1.04c0 2.27-1.82 3.982-4.25 3.982h-20.922zM206.841 60.289a4.16 4.16 0 0 1-4.155-4.171V26.28a4.317 4.317 0 0 0-4.31-4.311H184.83a4.31 4.31 0 0 0-4.309 4.31v29.839a4.174 4.174 0 0 1-4.169 4.17h-1.31a4.135 4.135 0 0 1-4.17-4.17V25.15c0-7.21 5.673-12.44 13.488-12.44h14.485c7.805 0 13.475 5.229 13.475 12.44v30.968c0 2.329-1.829 4.17-4.16 4.17h-1.319zM232.774 60.289c-7.78 0-12.074-6.58-12.074-11.13v-5.84c0-6.7 5.485-10.851 10.564-10.851h17.814c2.248 0 2.72-1.47 2.72-2.71v-3.77c0-.4-.081-4.02-2.72-4.02h-24.314c-2.404 0-4.16-1.68-4.16-3.98v-1.04c0-2.291 1.756-3.961 4.16-3.961h25.633c6.7 0 11.04 4.66 11.04 11.879v6.302c0 6.779-4.884 9.809-9.72 9.809h-17.533c-2.646 0-3.84 1.98-3.84 3.38v3.48c0 2.19 1.465 3.46 4.026 3.46h19.419c2.374 0 4.158 1.71 4.158 3.97v1.04c0 2.27-1.82 3.982-4.26 3.982h-20.913zM273.739 60.289c-2.31 0-4.055-1.712-4.055-3.981v-39.36c0-2.258 1.705-3.96 3.964-3.96h31.364c2.415 0 4.16 1.67 4.16 3.96v1.043c0 2.3-1.745 3.98-4.16 3.98h-25.687v10.02h18.822c2.41 0 4.16 1.69 4.16 3.98v1.04c0 2.302-1.75 3.972-4.16 3.972h-18.822v10.319h24.382c2.406 0 4.16 1.659 4.16 3.97v1.04c0 2.302-1.754 3.982-4.16 3.982h-29.968v-.005zM5.053 20.488v13.55a2.903 2.903 0 0 0 2.9 2.89h7.479c1.56 0 2.89-1.33 2.89-2.89v-13.55c0-1.6-1.294-2.899-2.89-2.899H7.898c-1.6 0-2.845 1.271-2.845 2.9m2.077 21.08c-3.931 0-7.13-3.06-7.13-6.83v-14.84c0-3.83 3.096-6.95 6.89-6.95h9.6c3.795 0 6.89 3.12 6.89 6.95v14.84c0 3.769-3.2 6.83-7.13 6.83H7.13zM35.508 20.778v12.96c0 1.792 1.4 3.19 3.188 3.19h7.012c1.79 0 3.188-1.4 3.188-3.19v-12.96a3.194 3.194 0 0 0-3.188-3.188h-7.011a3.193 3.193 0 0 0-3.189 3.188zM45.11 41.74c-2.766 0-4.853-.99-6.528-1.8-1.021-.49-1.905-.911-2.591-.911-.31 0-.575.14-.715.37l-.64 1.22c-.159.32-.799.949-1.59.949h-.949c-.912 0-1.642-.82-1.642-1.818V2.11c0-1.18.931-2.11 2.11-2.11h.822c1.17 0 2.12.94 2.12 2.11v12.489c0 .37.24.77.483.77.686 0 1.57-.402 2.591-.87 1.675-.77 3.762-1.72 6.53-1.72h.886c4.9 0 7.949 2.802 7.949 7.3v14.369c0 4.43-3.114 7.29-7.95 7.29h-.885v.002zM66.071 34.088a2.813 2.813 0 0 0 2.843 2.839h7.71c1.59 0 2.83-1.248 2.83-2.839v-4.599H66.068c.002.6.002 4.599.002 4.599zm2.075 7.48c-3.93 0-7.12-3.058-7.12-6.829V20.01c0-3.82 3.1-7.059 6.76-7.059h9.902c1.225 0 2.11.848 2.11 2.001v.649c0 1.159-.885 1.99-2.11 1.99h-8.136c-2.28 0-3.483 1.121-3.483 3.252v4.309h14.678c2.361 0 3.757 1.44 3.757 3.88v5.71c0 3.769-3.196 6.83-7.11 6.83h-9.248v-.004zM104.895 41.74c-2.76 0-4.841-.989-6.521-1.791-1.045-.491-1.938-.92-2.667-.92-.321 0-.451.04-.7.471l-.581 1.06c-.333.67-.9 1.008-1.664 1.008h-.816c-.985 0-1.704-.768-1.704-1.819V15.06c0-1.169.924-2.109 2.115-2.109h.815c1.17 0 2.124.95 2.124 2.109v18.679c0 1.75 1.43 3.188 3.18 3.188h7.014a3.196 3.196 0 0 0 3.185-3.188V15.06c0-1.169.929-2.109 2.11-2.109h.824c1.17 0 2.12.95 2.12 2.109v19.389c0 4.431-3.115 7.291-7.954 7.291h-.88zM315.415 18.754h.503c.574 0 1.06.207 1.06.747 0 .382-.277.765-1.06.765-.226 0-.382-.018-.503-.037v-1.475zm0-2.415h-.695v4.358c.365.053.713.105 1.233.105.662 0 1.095-.138 1.354-.329.262-.19.402-.484.402-.904 0-.571-.382-.919-.85-1.059v-.037c.382-.068.641-.415.73-1.059.104-.679.206-.938.276-1.077h-.729c-.106.139-.209.539-.295 1.112-.105.554-.383.765-.938.765h-.486v-1.875h-.002zm.73 5.575c-1.719 0-3.126-1.476-3.126-3.3 0-1.859 1.407-3.317 3.143-3.317 1.736-.019 3.126 1.458 3.126 3.299 0 1.842-1.39 3.318-3.126 3.318h-.017zm.017.607c2.136 0 3.838-1.736 3.838-3.909 0-2.205-1.703-3.923-3.855-3.923-2.137 0-3.873 1.718-3.873 3.923 0 2.171 1.736 3.909 3.873 3.909h.017z" fill="#73ba25"/>
    </g>
</svg>
