<svg viewBox="0 0 85 85" version="1.1" xmlns="http://www.w3.org/2000/svg" xmlns:xlink="http://www.w3.org/1999/xlink">
						<defs>
							<polygon id="path-1" points="0 84.1917 84.165 84.1917 84.165 -0.0003 0 -0.0003"></polygon>
						</defs>
						<g stroke="none" stroke-width="1" fill="none" fill-rule="evenodd">
							<g transform="translate(-47.000000, -279.000000)">
								<g transform="translate(47.000000, 279.000000)">
									<path d="M68.1176,60.7545 C68.1186,60.7555 68.1206,60.7565 68.1226,60.7585 C68.1206,60.7565 68.1186,60.7555 68.1176,60.7545" id="Fill-1" fill="#FEFEFE"></path>
									<path d="M9.3471,31.712 C10.9311,28.932 13.1671,26.689 15.9931,25.045 C18.8201,23.4 21.8481,22.567 24.9931,22.567 C28.2021,22.567 31.2841,23.402 34.1551,25.049 C37.0221,26.694 39.2731,28.911 40.8441,31.64 C42.4181,34.371 43.2161,37.476 43.2161,40.87 C43.2161,44.289 42.4161,47.435 40.8391,50.22 C39.2681,52.996 37.0461,55.214 34.2371,56.816 C31.4191,58.422 28.3091,59.236 24.9931,59.236 C19.9711,59.236 15.8001,57.517 12.2421,53.981 C8.6841,50.445 6.9551,46.229 6.9551,41.09 C6.9551,37.652 7.7601,34.497 9.3471,31.712 M25.1641,66.524 C32.2751,66.524 38.3871,64.011 43.3331,59.057 C48.2791,54.105 50.7851,47.99 50.7851,40.885 C50.7851,38.701 50.5491,36.615 50.0841,34.629 L61.9111,34.629 L61.9111,69.751 C64.1491,66.7 66.1651,63.39 68.0171,59.969 C68.3961,60.427 68.8781,60.829 69.4181,61.192 L69.4181,34.629 L84.1491,34.629 L84.1491,27.31 L47.0351,27.31 C46.0031,25.665 44.7661,24.118 43.3121,22.677 C38.3561,17.769 32.1231,15.28 24.7881,15.28 C20.2501,15.28 15.9711,16.424 12.0701,18.683 C8.1661,20.941 5.0421,24.108 2.7841,28.093 C1.4761,30.402 0.5531,32.85 0.0001,35.405 L0.0001,46.833 C1.0181,51.451 3.3081,55.56 6.8581,59.093 C11.8131,64.024 17.9721,66.524 25.1641,66.524" id="Fill-3" fill="#FEFEFE"></path>
									<mask id="mask-2" fill="white">
										<use xlink:href="#path-1"></use>
									</mask>
									<g id="Clip-6"></g>
									<polygon id="Fill-5" fill="#FEFEFE" mask="url(#mask-2)" points="0.001 84.1497 84.149 84.1497 84.149 12.2307 0.001 12.2307"></polygon>
									<path d="M84.1488,67.107 L84.1488,66.956 L84.1488,67.107 Z" id="Fill-7" fill="#275E31" mask="url(#mask-2)"></path>
									<path d="M55.1186,84.1495 L51.7326,84.1495 C51.9546,84.2115 53.7106,84.1645 55.1186,84.1495" id="Fill-8" fill="#275E31" mask="url(#mask-2)"></path>
									<polygon id="Fill-9" fill="#275E31" mask="url(#mask-2)" points="84.1488 62.0401 84.1488 62.0401 84.1488 62.1171"></polygon>
									<path d="M81.0082,66.1788 C78.3432,68.5678 73.5732,71.6738 68.0172,74.6488 L68.0172,74.8308 L67.6792,74.8308 C62.4752,77.5958 56.6132,80.2188 51.1382,82.0338 C47.7122,83.4068 45.2432,84.2088 44.6182,84.1498 L51.7332,84.1498 L55.1182,84.1498 C55.5692,84.1448 55.9842,84.1428 56.3002,84.1498 C63.8242,84.3008 83.7992,76.9618 84.1492,67.1078 L84.1492,66.9558 C84.1482,64.0478 84.1492,62.4688 84.1492,62.1168 L84.1492,62.0398 C83.9302,62.4368 83.6352,62.8478 83.3072,63.2638 C82.8862,64.1968 82.1482,65.1568 81.0082,66.1788" id="Fill-10" fill="#275E31" mask="url(#mask-2)"></path>
									<path d="M68.017,74.8312 L68.017,74.6482 C67.903,74.7092 67.793,74.7702 67.679,74.8312 L68.017,74.8312 Z" id="Fill-11" fill="#275E31" mask="url(#mask-2)"></path>
									<path d="M55.1186,84.1495 L56.3006,84.1495 C55.9836,84.1425 55.5686,84.1445 55.1186,84.1495" id="Fill-12" fill="#579C3B" mask="url(#mask-2)"></path>
									<path d="M34.2367,56.8155 C37.0467,55.2145 39.2677,52.9955 40.8397,50.2205 C42.4167,47.4355 43.2157,44.2895 43.2157,40.8705 C43.2157,37.4755 42.4187,34.3705 40.8437,31.6395 C39.2727,28.9115 37.0217,26.6945 34.1547,25.0485 C31.2847,23.4025 28.2027,22.5665 24.9927,22.5665 C21.8477,22.5665 18.8197,23.4005 15.9937,25.0445 C13.1677,26.6895 10.9307,28.9315 9.3467,31.7115 C7.7597,34.4965 6.9557,37.6515 6.9557,41.0895 C6.9557,46.2285 8.6837,50.4455 12.2417,53.9805 C15.7997,57.5165 19.9707,59.2355 24.9927,59.2355 C28.3087,59.2355 31.4197,58.4215 34.2367,56.8155" id="Fill-13" fill="#579C3B" mask="url(#mask-2)"></path>
									<path d="M55.1186,84.1495 L84.1486,84.1495 L84.1486,67.1075 C80.6396,78.6845 61.0136,84.7635 55.1186,84.1495" id="Fill-14" fill="#579C3B" mask="url(#mask-2)"></path>
									<path d="M82.8988,63.1051 C82.8498,63.1481 82.8108,63.1881 82.7568,63.2311 C82.2778,63.5041 81.1928,64.2451 79.3978,64.3151 C77.8268,64.3561 72.7638,63.9021 69.4188,61.7641 C68.9478,61.4631 68.5098,61.1291 68.1228,60.7581 C68.1208,60.7571 68.1188,60.7561 68.1178,60.7541 C66.0868,64.4551 64.0288,67.6931 61.9118,70.5251 C57.6708,76.1961 53.1898,80.2101 48.1988,82.8451 C48.1818,82.8551 48.1048,82.8951 48.0038,82.9461 C47.4548,83.2251 45.7948,84.0141 44.2768,84.1491 L44.6188,84.1491 C45.2438,84.2091 47.7118,83.4061 51.1378,82.0341 C56.6138,80.2191 62.4748,77.5951 67.6788,74.8311 C67.7938,74.7711 67.9028,74.7091 68.0168,74.6481 C73.5738,71.6741 78.3428,68.5671 81.0078,66.1791 C82.1478,65.1571 82.8858,64.1971 83.3068,63.2641 C83.6348,62.8481 83.9298,62.4371 84.1488,62.0401 L84.1488,60.7881 L84.1438,61.1461 C84.0448,61.4741 84.0008,62.1521 82.8988,63.1051" id="Fill-15" fill="#579C3B" mask="url(#mask-2)"></path>
									<path d="M42.0746,84.149 C43.8546,84.135 45.9416,83.513 47.9816,82.435 C53.5066,79.519 58.0426,75.024 61.9116,69.751 L61.9116,34.629 L50.0846,34.629 C50.5496,36.615 50.7856,38.701 50.7856,40.885 C50.7856,47.99 48.2786,54.105 43.3336,59.057 C38.3866,64.011 32.2746,66.524 25.1646,66.524 C17.9716,66.524 11.8126,64.024 6.8576,59.093 C3.3076,55.56 1.0176,51.451 0.0006,46.833 L0.0006,84.149 L44.2656,84.149 C44.4776,84.101 44.2626,84.149 42.0746,84.149" id="Fill-16" fill="#579C3B" mask="url(#mask-2)"></path>
									<path d="M69.4184,61.192 C72.5054,63.268 77.7084,63.869 79.3384,63.847 C80.3884,63.816 83.9494,63.004 84.1484,59.9 L84.1484,34.629 L69.4184,34.629 L69.4184,61.192 Z" id="Fill-17" fill="#579C3B" mask="url(#mask-2)"></path>
									<path d="M84.1488,66.9562 L84.1488,62.1172 C84.1488,62.4682 84.1478,64.0472 84.1488,66.9562" id="Fill-18" fill="#579C3B" mask="url(#mask-2)"></path>
									<path d="M77.2065,8.1305 L71.3965,8.1305 C70.2075,8.1305 69.2345,7.1575 69.2345,5.9675 C69.2345,4.7785 70.2075,3.8045 71.3965,3.8045 L77.2065,3.8045 C78.3955,3.8045 79.3695,4.7785 79.3695,5.9675 C79.3695,7.1575 78.3955,8.1305 77.2065,8.1305 Z M42.0745,9.3805 C40.1895,9.3805 38.6615,7.8525 38.6615,5.9675 C38.6615,4.0835 40.1895,2.5545 42.0745,2.5545 C43.9595,2.5545 45.4875,4.0835 45.4875,5.9675 C45.4875,7.8525 43.9595,9.3805 42.0745,9.3805 Z M13.3715,8.1305 L7.5615,8.1305 C6.3725,8.1305 5.3985,7.1575 5.3985,5.9675 C5.3985,4.7785 6.3725,3.8045 7.5615,3.8045 L13.3715,3.8045 C14.5605,3.8045 15.5335,4.7785 15.5335,5.9675 C15.5335,7.1575 14.5605,8.1305 13.3715,8.1305 Z M0.0005,0.0005 L0.0005,35.4045 C0.5535,32.8505 1.4765,30.4025 2.7835,28.0925 C5.0425,24.1085 8.1665,20.9415 12.0695,18.6825 C15.9715,16.4245 20.2505,15.2795 24.7885,15.2795 C32.1235,15.2795 38.3555,17.7685 43.3115,22.6775 C44.7665,24.1175 46.0035,25.6655 47.0355,27.3105 L84.1485,27.3105 L84.1485,0.0005 L0.0005,0.0005 Z" id="Fill-19" fill="#579C3B" mask="url(#mask-2)"></path>
									<path d="M44.2504,84.1529 C44.2594,84.1529 44.2684,84.1499 44.2764,84.1499 L44.2664,84.1499 C44.2604,84.1509 44.2574,84.1519 44.2504,84.1529" id="Fill-20" fill="#FEFEFE" mask="url(#mask-2)"></path>
									<path d="M84.1655,59.7262 C84.1645,59.7872 84.1525,59.8412 84.1485,59.9002 L84.1485,60.7882 L84.1655,59.7262 Z" id="Fill-21" fill="#FEFEFE" mask="url(#mask-2)"></path>
									<path d="M48.1987,82.8453 C53.1897,80.2103 57.6717,76.1963 61.9117,70.5253 L61.9117,69.7503 C58.0427,75.0243 53.5067,79.5183 47.9817,82.4353 C45.9417,83.5123 43.8547,84.1353 42.0747,84.1493 C44.2627,84.1493 44.4777,84.1003 44.2657,84.1493 L44.2767,84.1493 C45.7957,84.0133 47.4547,83.2253 48.0047,82.9463 C48.0687,82.9123 48.1327,82.8803 48.1987,82.8453" id="Fill-22" fill="#FEFEFE" mask="url(#mask-2)"></path>
									<path d="M79.3383,63.8468 C77.7083,63.8688 72.5053,63.2678 69.4183,61.1918 L69.4183,61.7448 C72.8953,63.9038 78.5073,64.3708 79.8023,64.1778 C80.7543,63.9838 81.9273,63.7138 82.8993,63.1048 C84.0003,62.1528 84.0443,61.4738 84.1443,61.1458 L84.1493,60.7878 L84.1493,59.8998 C83.9493,63.0038 80.3883,63.8158 79.3383,63.8468" id="Fill-23" fill="#FEFEFE" mask="url(#mask-2)"></path>
									<path d="M68.017,59.9693 C66.165,63.3903 64.149,66.6993 61.912,69.7503 L61.912,70.5253 C64.029,67.6933 66.087,64.4553 68.118,60.7543 C68.119,60.7563 68.121,60.7573 68.122,60.7583 C68.502,61.1213 68.941,61.4483 69.418,61.7443 L69.418,61.1923 C68.878,60.8293 68.396,60.4273 68.017,59.9693" id="Fill-24" fill="#FEFEFE" mask="url(#mask-2)"></path>
									<path d="M61.9115,70.525 C57.6715,76.196 53.1895,80.21 48.1985,82.845 C48.1325,82.88 48.0685,82.913 48.0045,82.946 C48.1045,82.895 48.1825,82.855 48.1985,82.845 C53.1895,80.21 57.6715,76.196 61.9115,70.525" id="Fill-25" fill="#FEFEFE" mask="url(#mask-2)"></path>
									<path d="M79.3979,64.3155 C81.1929,64.2455 82.2779,63.5035 82.7569,63.2315 C82.8109,63.1875 82.8499,63.1485 82.8989,63.1055 C81.9269,63.7135 80.7539,63.9835 79.8019,64.1775 C78.5069,64.3715 72.8949,63.9035 69.4189,61.7445 L69.4189,61.7645 C72.7639,63.9015 77.8269,64.3565 79.3979,64.3155" id="Fill-26" fill="#FEFEFE" mask="url(#mask-2)"></path>
									<path d="M69.4184,61.7643 L69.4184,61.7443 C68.9404,61.4483 68.5024,61.1213 68.1224,60.7583 C68.5104,61.1293 68.9474,61.4633 69.4184,61.7643" id="Fill-27" fill="#FEFEFE" mask="url(#mask-2)"></path>
									<path d="M68.1176,60.7545 C66.0876,64.4555 64.0286,67.6925 61.9116,70.5255 C64.0286,67.6925 66.0876,64.4555 68.1176,60.7545" id="Fill-28" fill="#FEFEFE" mask="url(#mask-2)"></path>
								</g>
							</g>
						</g>
					</svg>
